GFORTRAN module version '0' created from vel.f90 on Sat May  7 21:17:11 2016
MD5:cf16890a5f03dfe88b474224f11ef9b8 -- If you edit this, you'll get what you deserve.

(() () () () () () () () () () () () () () () () () () () () () () () ()
() () ())

()

()

()

()

(2 '__convert_i4_r4' '(intrinsic)' '__convert_i4_r4' 1 ((PROCEDURE
UNKNOWN-INTENT UNKNOWN-PROC UNKNOWN UNKNOWN FUNCTION ELEMENTAL PURE) (
REAL 4 0 0 REAL ()) 0 0 () () 0 () () () 0 0)
3 '__convert_r4_r8' '(intrinsic)' '__convert_r4_r8' 1 ((PROCEDURE
UNKNOWN-INTENT UNKNOWN-PROC UNKNOWN UNKNOWN FUNCTION ELEMENTAL PURE) (
REAL 8 0 0 REAL ()) 0 0 () () 0 () () () 0 0)
4 '__convert_r8_r4' '(intrinsic)' '__convert_r8_r4' 1 ((PROCEDURE
UNKNOWN-INTENT UNKNOWN-PROC UNKNOWN UNKNOWN FUNCTION ELEMENTAL PURE) (
REAL 4 0 0 REAL ()) 0 0 () () 0 () () () 0 0)
5 'flow_field' 'velocity' 'flow_field' 1 ((PROCEDURE UNKNOWN-INTENT
MODULE-PROC DECL UNKNOWN SUBROUTINE ALWAYS_EXPLICIT) (UNKNOWN 0 0 0
UNKNOWN ()) 6 0 (7 8) () 0 () () () 0 0)
9 'fv3' 'velocity' 'fv3' 1 ((VARIABLE UNKNOWN-INTENT UNKNOWN-PROC
UNKNOWN EXPLICIT-SAVE DIMENSION) (REAL 8 0 0 REAL ()) 0 0 () (2 EXPLICIT
(CONSTANT (INTEGER 4 0 0 INTEGER ()) 0 '1') (CONSTANT (INTEGER 4 0 0
INTEGER ()) 0 '128') (CONSTANT (INTEGER 4 0 0 INTEGER ()) 0 '1') (
CONSTANT (INTEGER 4 0 0 INTEGER ()) 0 '3')) 0 () () () 0 0)
10 'fv3a' 'velocity' 'fv3a' 1 ((VARIABLE UNKNOWN-INTENT UNKNOWN-PROC
UNKNOWN EXPLICIT-SAVE DIMENSION) (REAL 8 0 0 REAL ()) 0 0 () (2 EXPLICIT
(CONSTANT (INTEGER 4 0 0 INTEGER ()) 0 '1') (CONSTANT (INTEGER 4 0 0
INTEGER ()) 0 '128') (CONSTANT (INTEGER 4 0 0 INTEGER ()) 0 '1') (
CONSTANT (INTEGER 4 0 0 INTEGER ()) 0 '3')) 0 () () () 0 0)
11 'gradient_p' 'velocity' 'gradient_p' 1 ((PROCEDURE UNKNOWN-INTENT
MODULE-PROC DECL UNKNOWN SUBROUTINE) (UNKNOWN 0 0 0 UNKNOWN ()) 12 0 (
13) () 0 () () () 0 0)
14 'kind' '(intrinsic)' 'kind' 1 ((PROCEDURE UNKNOWN-INTENT UNKNOWN-PROC
UNKNOWN UNKNOWN FUNCTION) (INTEGER 4 0 0 INTEGER ()) 0 0 () () 14 () ()
() 0 0)
15 'momentum' 'velocity' 'momentum' 1 ((PROCEDURE UNKNOWN-INTENT
MODULE-PROC DECL UNKNOWN SUBROUTINE ALWAYS_EXPLICIT) (UNKNOWN 0 0 0
UNKNOWN ()) 16 0 (17 18 19) () 0 () () () 0 0)
20 'momentum_ex' 'velocity' 'momentum_ex' 1 ((PROCEDURE UNKNOWN-INTENT
MODULE-PROC DECL UNKNOWN SUBROUTINE ALWAYS_EXPLICIT) (UNKNOWN 0 0 0
UNKNOWN ()) 21 0 (22 23 24) () 0 () () () 0 0)
25 'momentum_o' 'velocity' 'momentum_o' 1 ((PROCEDURE UNKNOWN-INTENT
MODULE-PROC DECL UNKNOWN SUBROUTINE ALWAYS_EXPLICIT) (UNKNOWN 0 0 0
UNKNOWN ()) 26 0 (27 28 29) () 0 () () () 0 0)
30 'pressure' 'velocity' 'pressure' 1 ((PROCEDURE UNKNOWN-INTENT
MODULE-PROC DECL UNKNOWN SUBROUTINE) (UNKNOWN 0 0 0 UNKNOWN ()) 31 0 (
32 33 34 35) () 0 () () () 0 0)
36 'set_ns_value' 'velocity' 'set_ns_value' 1 ((PROCEDURE UNKNOWN-INTENT
MODULE-PROC DECL UNKNOWN SUBROUTINE) (UNKNOWN 0 0 0 UNKNOWN ()) 37 0 (
38 39) () 0 () () () 0 0)
40 'velocity' 'velocity' 'velocity' 1 ((MODULE UNKNOWN-INTENT
UNKNOWN-PROC UNKNOWN UNKNOWN) (UNKNOWN 0 0 0 UNKNOWN ()) 0 0 () () 0 ()
() () 0 0)
38 'p3' '' 'p3' 37 ((VARIABLE UNKNOWN-INTENT UNKNOWN-PROC UNKNOWN
UNKNOWN DUMMY) (REAL 8 0 0 REAL ()) 0 0 () () 0 () () () 0 0)
39 'ppv' '' 'ppv' 37 ((VARIABLE UNKNOWN-INTENT UNKNOWN-PROC UNKNOWN
UNKNOWN DUMMY) (REAL 8 0 0 REAL ()) 0 0 () () 0 () () () 0 0)
17 'u' '' 'u' 16 ((VARIABLE IN UNKNOWN-PROC UNKNOWN UNKNOWN DIMENSION
DUMMY) (REAL 8 0 0 REAL ()) 0 0 () (1 ASSUMED_SHAPE (CONSTANT (INTEGER 4
0 0 INTEGER ()) 0 '1') ()) 0 () () () 0 0)
18 't' '' 't' 16 ((VARIABLE UNKNOWN-INTENT UNKNOWN-PROC UNKNOWN UNKNOWN
DUMMY) (REAL 8 0 0 REAL ()) 0 0 () () 0 () () () 0 0)
19 'f' '' 'f' 16 ((VARIABLE OUT UNKNOWN-PROC UNKNOWN UNKNOWN DIMENSION
DUMMY) (REAL 8 0 0 REAL ()) 0 0 () (1 ASSUMED_SHAPE (CONSTANT (INTEGER 4
0 0 INTEGER ()) 0 '1') ()) 0 () () () 0 0)
27 'u' '' 'u' 26 ((VARIABLE IN UNKNOWN-PROC UNKNOWN UNKNOWN DIMENSION
DUMMY) (REAL 8 0 0 REAL ()) 0 0 () (1 ASSUMED_SHAPE (CONSTANT (INTEGER 4
0 0 INTEGER ()) 0 '1') ()) 0 () () () 0 0)
28 't' '' 't' 26 ((VARIABLE UNKNOWN-INTENT UNKNOWN-PROC UNKNOWN UNKNOWN
DUMMY) (REAL 8 0 0 REAL ()) 0 0 () () 0 () () () 0 0)
29 'f' '' 'f' 26 ((VARIABLE OUT UNKNOWN-PROC UNKNOWN UNKNOWN DIMENSION
DUMMY) (REAL 8 0 0 REAL ()) 0 0 () (1 ASSUMED_SHAPE (CONSTANT (INTEGER 4
0 0 INTEGER ()) 0 '1') ()) 0 () () () 0 0)
22 'u' '' 'u' 21 ((VARIABLE IN UNKNOWN-PROC UNKNOWN UNKNOWN DIMENSION
DUMMY) (REAL 8 0 0 REAL ()) 0 0 () (1 ASSUMED_SHAPE (CONSTANT (INTEGER 4
0 0 INTEGER ()) 0 '1') ()) 0 () () () 0 0)
23 't' '' 't' 21 ((VARIABLE UNKNOWN-INTENT UNKNOWN-PROC UNKNOWN UNKNOWN
DUMMY) (REAL 8 0 0 REAL ()) 0 0 () () 0 () () () 0 0)
24 'f' '' 'f' 21 ((VARIABLE OUT UNKNOWN-PROC UNKNOWN UNKNOWN DIMENSION
DUMMY) (REAL 8 0 0 REAL ()) 0 0 () (1 ASSUMED_SHAPE (CONSTANT (INTEGER 4
0 0 INTEGER ()) 0 '1') ()) 0 () () () 0 0)
7 'v' '' 'v' 6 ((VARIABLE UNKNOWN-INTENT UNKNOWN-PROC UNKNOWN UNKNOWN
DIMENSION DUMMY) (REAL 8 0 0 REAL ()) 0 0 () (2 ASSUMED_SHAPE (CONSTANT
(INTEGER 4 0 0 INTEGER ()) 0 '1') () (CONSTANT (INTEGER 4 0 0 INTEGER ())
0 '1') ()) 0 () () () 0 0)
8 'dvds' '' 'dvds' 6 ((VARIABLE UNKNOWN-INTENT UNKNOWN-PROC UNKNOWN
UNKNOWN DIMENSION DUMMY) (REAL 8 0 0 REAL ()) 0 0 () (3 ASSUMED_SHAPE (
CONSTANT (INTEGER 4 0 0 INTEGER ()) 0 '1') () (CONSTANT (INTEGER 4 0 0
INTEGER ()) 0 '1') () (CONSTANT (INTEGER 4 0 0 INTEGER ()) 0 '1') ()) 0
() () () 0 0)
32 'v' '' 'v' 31 ((VARIABLE UNKNOWN-INTENT UNKNOWN-PROC UNKNOWN UNKNOWN
DIMENSION DUMMY) (REAL 8 0 0 REAL ()) 0 0 () (2 EXPLICIT (CONSTANT (
INTEGER 4 0 0 INTEGER ()) 0 '1') (CONSTANT (INTEGER 4 0 0 INTEGER ()) 0
'128') (CONSTANT (INTEGER 4 0 0 INTEGER ()) 0 '1') (CONSTANT (INTEGER 4
0 0 INTEGER ()) 0 '3')) 0 () () () 0 0)
33 'p' '' 'p' 31 ((VARIABLE UNKNOWN-INTENT UNKNOWN-PROC UNKNOWN UNKNOWN
DIMENSION DUMMY) (REAL 8 0 0 REAL ()) 0 0 () (1 EXPLICIT (CONSTANT (
INTEGER 4 0 0 INTEGER ()) 0 '1') (CONSTANT (INTEGER 4 0 0 INTEGER ()) 0
'128')) 0 () () () 0 0)
34 'tau' '' 'tau' 31 ((VARIABLE UNKNOWN-INTENT UNKNOWN-PROC UNKNOWN
UNKNOWN DIMENSION DUMMY) (REAL 8 0 0 REAL ()) 0 0 () (3 EXPLICIT (
CONSTANT (INTEGER 4 0 0 INTEGER ()) 0 '1') (CONSTANT (INTEGER 4 0 0
INTEGER ()) 0 '3') (CONSTANT (INTEGER 4 0 0 INTEGER ()) 0 '1') (
CONSTANT (INTEGER 4 0 0 INTEGER ()) 0 '3') (CONSTANT (INTEGER 4 0 0
INTEGER ()) 0 '1') (CONSTANT (INTEGER 4 0 0 INTEGER ()) 0 '128')) 0 () ()
() 0 0)
35 'time' '' 'time' 31 ((VARIABLE UNKNOWN-INTENT UNKNOWN-PROC UNKNOWN
UNKNOWN DUMMY) (REAL 8 0 0 REAL ()) 0 0 () () 0 () () () 0 0)
13 'p' '' 'p' 12 ((VARIABLE UNKNOWN-INTENT UNKNOWN-PROC UNKNOWN UNKNOWN
DIMENSION DUMMY) (REAL 8 0 0 REAL ()) 0 0 () (1 EXPLICIT (CONSTANT (
INTEGER 4 0 0 INTEGER ()) 0 '1') (CONSTANT (INTEGER 4 0 0 INTEGER ()) 0
'128')) 0 () () () 0 0)
)

('__convert_i4_r4' 0 2 '__convert_r4_r8' 0 3 '__convert_r8_r4' 0 4
'flow_field' 0 5 'fv3' 0 9 'fv3a' 0 10 'gradient_p' 0 11 'kind' 0 14
'momentum' 0 15 'momentum_ex' 0 20 'momentum_o' 0 25 'pressure' 0 30
'set_ns_value' 0 36 'velocity' 0 40)
