 0   0   1   3    0.000
  1.0    0.0    0.0    1.0   0.95
   2.000     0.020    -5.000     2.000    50.0
.2E-03    0   .1E-09
   5.000     5.000     5.000     4.000     1.000
  1.00  0.00  1.00     -1.0